@startuml(id=FulfilmenSystem)
title Fulfilment System - System Context

skinparam {
  shadowing false
  arrowFontSize 10
  defaultTextAlignment center
  wrapWidth 200
  maxMessageSize 100
}
hide stereotype
top to bottom direction
skinparam rectangle<<1>> {
  BackgroundColor #08427b
  FontColor #ffffff
  BorderColor #052e56
}
skinparam rectangle<<2>> {
  BackgroundColor #08427b
  FontColor #ffffff
  BorderColor #052e56
}
skinparam rectangle<<3>> {
  BackgroundColor #1168bd
  FontColor #ffffff
  BorderColor #0b4884
}
skinparam rectangle<<4>> {
  BackgroundColor #1168bd
  FontColor #ffffff
  BorderColor #0b4884
}
skinparam rectangle<<15>> {
  BackgroundColor #1168bd
  FontColor #ffffff
  BorderColor #0b4884
}
rectangle "==Admin\n<size:10>[Person]</size>\n\nsite administrator" <<2>> as 2
rectangle "==Customer\n<size:10>[Person]</size>\n\nUser have account shopping" <<1>> as 1
rectangle "==Fulfilment System\n<size:10>[Software System]</size>\n\nFulfiment system that tracks inventory and ship order to customers" <<4>> as 4
rectangle "==Online Sales System\n<size:10>[Software System]</size>\n\nDisplay for sale,takes orders" <<3>> as 3
rectangle "==Online Sales System.\n<size:10>[Software System]</size>" <<15>> as 15
2 .[#707070,thickness=2].> 4 : "manage"
2 .[#707070,thickness=2].> 15 : "build, administer, organize images and articles on the web"
1 .[#707070,thickness=2].> 3 : "Orders using"
1 .[#707070,thickness=2].> 15 : "login, add products to cart and purchase using"
4 .[#707070,thickness=2].> 1 : "ships"
4 .[#707070,thickness=2].> 1 : "Emails"
4 .[#707070,thickness=2].> 3 : "list of products sold"
15 .[#707070,thickness=2].> 4 : "Retrieves listlings[JSON/HTTPS]"
3 .[#707070,thickness=2].> 2 : "Product handling"
3 .[#707070,thickness=2].> 4 : "Sends order to"
@enduml